<?xml version="1.0" encoding="utf-8"?>
<!-- Generator: Adobe Illustrator 17.1.0, SVG Export Plug-In . SVG Version: 6.00 Build 0)  -->
<!DOCTYPE svg PUBLIC "-//W3C//DTD SVG 1.1//EN" "http://www.w3.org/Graphics/SVG/1.1/DTD/svg11.dtd">
<svg version="1.1" id="Layer_1" xmlns="http://www.w3.org/2000/svg" xmlns:xlink="http://www.w3.org/1999/xlink" x="0px" y="0px"
	 viewBox="0 0 394 63" enable-background="new 0 0 394 63" xml:space="preserve">
<g>
	<path fill="#32363A" d="M-0.078,45.443h6.443V3.391h-6.443V0.678h15.803v2.713H9.282v19.602h30.114V3.391h-6.443V0.678h15.804
		v2.713h-6.444v42.052h6.444v2.713H32.953v-2.713h6.443V25.706H9.282v19.737h6.443v2.713H-0.078V45.443z"/>
	<path fill="#32363A" d="M74.744,27.469h2.238v-1.492c0-7.257-3.663-9.835-9.021-9.835c-2.984,0-5.358,0.814-7.189,1.628
		c-1.017,0.475-1.967,1.085-2.781,1.696l-1.628-2.306c0.882-0.746,1.899-1.356,3.052-1.899c1.967-1.017,4.883-1.831,8.614-1.831
		c7.868,0,11.802,4.137,11.802,12.48v18.11c0,1.017,0.475,1.492,1.492,1.492h4.069v2.645h-4.477c-2.781,0-3.934-1.085-3.934-3.73
		v-0.746c0-1.017,0.068-1.695,0.136-2.238l0.136-0.813h-0.136c-0.61,1.56-1.492,2.916-2.646,4.138
		c-1.899,2.103-4.748,4.205-9.36,4.205c-5.426,0-11.395-2.984-11.395-10.038C53.718,27.672,68.979,27.469,74.744,27.469z
		 M65.112,46.325c7.868,0,11.87-7.597,11.87-14.379v-1.832h-2.17c-2.51,0-18.109-0.61-18.109,8.478
		C56.702,42.594,59.619,46.325,65.112,46.325z"/>
	<path fill="#32363A" d="M105.702,13.429c3.595,0,11.938,1.628,11.938,7.054v3.256h-2.849v-2.646c0-3.255-5.833-4.883-9.088-4.883
		c-7.936,0-14.515,5.833-14.515,15.057c0,9.021,6.579,14.922,14.515,14.922c3.798,0,6.579-1.153,8.478-2.441
		c1.153-0.746,2.103-1.561,2.849-2.442l1.492,2.374c-0.881,0.95-1.967,1.832-3.255,2.646c-2.17,1.356-5.291,2.646-9.563,2.646
		c-9.563,0-17.499-6.919-17.499-17.703C88.203,20.415,96.274,13.429,105.702,13.429z"/>
	<path fill="#32363A" d="M122.688,45.511h6.104V3.323h-6.443V0.678h9.292v26.926h5.697l9.156-10.716h-5.29v-2.645h13.769v2.645
		h-4.816l-10.174,11.734v0.136c0.068,0,0.882,0.339,2.238,2.577l7.597,12.684c0.746,1.288,1.153,1.492,3.255,1.492h2.51v2.645
		h-2.645c-3.663,0-4.341-0.678-6.172-3.595l-7.732-12.819c-0.814-1.289-1.628-1.492-3.459-1.492h-3.934v15.261h6.104v2.645h-15.058
		V45.511z"/>
	<path fill="#32363A" d="M173.734,13.429c9.292,0,13.836,7.257,13.836,15.464c0,0.339,0,0.881-0.068,1.221
		c-0.068,0.204-0.068,0.407-0.068,0.61h-27.198c0,9.835,6.647,15.464,14.515,15.464c3.255,0,5.901-1.085,7.732-2.17
		c1.085-0.61,2.035-1.356,2.781-2.103l1.56,2.373c-0.949,0.882-2.035,1.628-3.255,2.307c-2.103,1.153-5.087,2.374-8.817,2.374
		c-9.563,0-17.499-6.919-17.499-17.703C157.253,19.873,165.053,13.429,173.734,13.429z M184.586,28.08
		c-0.339-8.343-5.222-12.005-10.92-12.005c-6.24,0-11.937,4.07-13.226,12.005H184.586z"/>
	<path fill="#32363A" d="M192.416,45.511h5.426V18.38c0-1.017-0.475-1.492-1.492-1.492h-4.951v-2.645h5.358
		c2.78,0,3.934,1.085,3.934,3.73v2.374c0,0.746,0,1.492-0.067,1.967c-0.068,0.271-0.068,0.542-0.068,0.814h0.136
		c1.695-5.223,5.29-9.157,10.717-9.157c0.542,0,1.018,0,1.356,0.068l0.61,0.136v2.849c-0.136,0-0.271,0-0.475-0.068
		c-0.271-0.068-0.61-0.068-1.086-0.068c-7.936,0-11.123,9.767-11.123,16.617v12.006h5.426v2.645h-13.7V45.511z"/>
	<path fill="#32363A" d="M214.819,41.509h5.766V6.714h-5.766V0h34.388v12.479h-7.597V7.528H229.47v13.836h15.668v7.122H229.47
		v13.023h6.376v6.646h-21.026V41.509z"/>
	<path fill="#32363A" d="M269.612,12.751c10.58,0,19.059,7.529,19.059,18.109c0,10.649-8.479,18.11-18.991,18.11
		c-10.581,0-19.059-7.461-19.059-18.11C250.621,20.28,259.099,12.751,269.612,12.751z M269.68,41.645
		c5.63,0,10.241-4.341,10.241-10.785c0-6.375-4.611-10.784-10.241-10.784s-10.31,4.409-10.31,10.784
		C259.37,37.304,264.05,41.645,269.68,41.645z"/>
	<path fill="#32363A" d="M291.767,41.712h5.02V21.5c0-1.018-0.476-1.492-1.492-1.492h-3.866v-6.443h9.021
		c3.052,0,4.612,1.424,4.612,4.205v2.035c0,0.61,0,1.085-0.068,1.56c-0.067,0.204-0.067,0.407-0.067,0.61h0.136
		c1.628-4.951,5.63-8.885,10.987-8.885c0.475,0,0.814,0,1.086,0.068c0.203,0.068,0.339,0.068,0.475,0.068v8.479
		c-0.204,0-0.407,0-0.61-0.068c-0.476-0.068-0.882-0.068-1.492-0.068c-6.986,0-10.106,6.104-10.106,12.616v7.528h4.951v6.443
		h-18.584V41.712z"/>
	<path fill="#32363A" d="M325.904,53.04c0.814,0.407,1.764,0.813,2.781,1.153c1.831,0.61,4.138,1.152,6.782,1.152
		c5.291,0,9.768-2.374,9.768-8.682v-2.17c0-0.475,0-0.882,0.067-1.221c0.068-0.204,0.068-0.407,0.068-0.61h-0.136
		c-2.103,3.052-5.02,4.815-9.632,4.815c-9.97,0-15.531-8.004-15.531-17.5s5.29-17.228,15.328-17.228
		c4.069,0,8.885,1.628,10.717,5.223h0.135c0-0.068,0-0.204-0.067-0.339s-0.067-0.407-0.067-0.814c0-1.831,1.221-3.255,3.934-3.255
		h8.613v6.443h-3.323c-1.018,0-1.492,0.475-1.492,1.356v24.688c0,11.87-9.292,16.346-18.245,16.346
		c-4.341,0-8.885-1.152-12.344-2.984L325.904,53.04z M345.438,30.046c0-7.868-3.934-9.97-8.546-9.97
		c-5.223,0-8.139,3.73-8.139,9.631c0,6.037,3.052,10.513,8.682,10.513C341.505,40.22,345.438,37.846,345.438,30.046z"/>
	<path fill="#32363A" d="M378.682,12.751c9.971,0,15.396,7.257,15.396,16.414c0,0.475,0,1.221-0.067,1.832l-0.136,1.085h-23.942
		c0.543,6.308,5.154,9.631,10.377,9.631c2.917,0,5.291-0.813,7.122-1.831c1.085-0.543,2.035-1.153,2.916-1.831l3.324,6.104
		c-1.018,0.881-2.307,1.627-3.73,2.373c-2.442,1.289-5.901,2.442-10.242,2.442c-11.462,0-18.584-8.343-18.584-18.11
		C361.115,20.212,368.305,12.751,378.682,12.751z M385.193,26.994c-0.203-4.815-2.984-7.596-6.715-7.596
		c-4.408,0-7.528,2.984-8.343,7.596H385.193z"/>
</g>
</svg>
